cmstatr Validation • cmstatr
…
  2, 85.3690411, "ETW", 2, 121.049610, "ETW2",
  2, 115.801622, "ETW", 2, 111.223082, "ETW2",
  2, 44.3217741, "ETW", 2, 104.574843, "ETW2",
  2, 117.328077, "ETW", 2, 103.222552, "ETW2",
  2, 88.6782903, "ETW", 3, 99.3918538, "ETW2",
  3, 107.676986, "ETW", 3, 87.3421658, "ETW2",
  3, 108.960241, "ETW", 3, 102.730741, "ETW2",
  3, 116.122640, "ETW", 3, 96.3694916, "ETW2",
  3, 80.2334815, "ETW", 3, 99.5946088, "ETW2",
  3, 106.145570, "ETW", 3, 97.0712407, "ETW2",
  3, 104.667866, "ETW",
  3, 104.234953, "ETW"
)
dat_8_3_11_1_1
#> # A tibble: 102 × 3
#>    batch strength condition
#>    <dbl>    <dbl> <chr>    
#>  1     1    118.  CTD      
#>  2     1     85.0 RTD      
#>  3     1     83.7 ETD      
#>  4     1    124.  CTD      
#>  5     1     92.5 RTD      
#>  6     1     84.4 ETD      
#>  7     1    115.  CTD      
#>  8     1     96.8 RTD      
#>  9     1     94.8 ETD      
#> 10     1    113.  CTD      
#> # … with 92 more rows
…
  28, 1.800, 62, 1.603, 96, 1.533, 130, 1.494,
  29, 1.789, 63, 1.600, 97, 1.531, 131, 1.493,
  30, 1.778, 64, 1.597, 98, 1.530, 132, 1.492,
  31, 1.768, 65, 1.595, 99, 1.529, 133, 1.492,
  32, 1.758, 66, 1.592, 100, 1.527, 134, 1.491,
  33, 1.749, 67, 1.589, 101, 1.526, 135, 1.490,
  34, 1.741, 68, 1.587, 102, 1.525, 136, 1.489,
  35, 1.733, 69, 1.584, 103, 1.523, 137, 1.488
) %>%
  arrange(n) %>%
  mutate(kB_cmstatr = k_factor_normal(n, p = 0.9, conf = 0.95)) %>%
  rowwise() %>%
  mutate(diff = expect_equal(kB_published, kB_cmstatr, tolerance = 0.001)) %>%
  select(-c(diff))
#> # A tibble: 136 × 3
#> # Rowwise: 
#>        n kB_published kB_cmstatr
#>    <dbl>        <dbl>      <dbl>
#>  1     2        20.6       20.6 
#>  2     3         6.16       6.16
#>  3     4         4.16       4.16
#>  4     5         3.41       3.41
#>  5     6         3.01       3.01
#>  6     7         2.76       2.76
#>  7     8         2.58       2.58
#>  8     9         2.45       2.45
#>  9    10         2.36       2.35
#> 10    11         2.28       2.28
#> # … with 126 more rows
…
  28, 3.098, 62, 2.798, 96, 2.692, 130, 2.635,
  29, 3.080, 63, 2.793, 97, 2.690, 131, 2.634,
  30, 3.064, 64, 2.789, 98, 2.688, 132, 2.632,
  31, 3.048, 65, 2.785, 99, 2.686, 133, 2.631,
  32, 3.034, 66, 2.781, 100, 2.684, 134, 2.630,
  33, 3.020, 67, 2.777, 101, 2.682, 135, 2.628,
  34, 3.007, 68, 2.773, 102, 2.680, 136, 2.627,
  35, 2.995, 69, 2.769, 103, 2.678, 137, 2.626
) %>%
  arrange(n) %>%
  mutate(kA_cmstatr = k_factor_normal(n, p = 0.99, conf = 0.95)) %>%
  rowwise() %>%
  mutate(diff = expect_equal(kA_published, kA_cmstatr, tolerance = 0.001)) %>%
  select(-c(diff))
#> # A tibble: 136 × 3
#> # Rowwise: 
#>        n kA_published kA_cmstatr
#>    <dbl>        <dbl>      <dbl>
#>  1     2        37.1       37.1 
#>  2     3        10.6       10.6 
#>  3     4         7.04       7.04
#>  4     5         5.74       5.74
#>  5     6         5.06       5.06
#>  6     7         4.64       4.64
#>  7     8         4.35       4.35
#>  8     9         4.14       4.14
#>  9    10         3.98       3.98
#> 10    11         3.85       3.85
#> # … with 126 more rows
…
  100, 1.30806,
  120, 1.24425,
  140, 1.19491,
  160, 1.15519,
  180, 1.12226,
  200, 1.09434,
  225, 1.06471,
  250, 1.03952,
  275, 1.01773
) %>%
  rowwise() %>%
  mutate(z_calc = hk_ext_z(n, 1, n, 0.99, 0.95)) %>%
  mutate(diff = expect_lt(abs(k - z_calc), 0.0001)) %>% 
  select(-c(diff))
#> # A tibble: 29 × 3
#> # Rowwise: 
#>        n     k z_calc
#>    <dbl> <dbl>  <dbl>
#>  1     2 80.0   80.0 
#>  2     4  9.50   9.50
#>  3     6  5.58   5.58
#>  4     8  4.25   4.25
#>  5    10  3.57   3.57
#>  6    12  3.16   3.16
#>  7    14  2.87   2.87
#>  8    16  2.66   2.66
#>  9    18  2.50   2.50
#> 10    20  2.37   2.37
#> # … with 19 more rows
…
  19, 9, 1.311,
  20, 10, 1.253,
  21, 10, 1.218,
  22, 10, 1.184,
  23, 11, 1.143,
  24, 11, 1.114,
  25, 11, 1.087,
  26, 11, 1.060,
  27, 11, 1.035,
  28, 12, 1.010
) %>% 
  rowwise() %>%
  mutate(r_calc = hk_ext_z_j_opt(n, 0.90, 0.95)$j) %>%
  mutate(k_calc = hk_ext_z_j_opt(n, 0.90, 0.95)$z)
#> # A tibble: 27 × 5
#> # Rowwise: 
#>        n     r     k r_calc k_calc
#>    <dbl> <dbl> <dbl>  <int>  <dbl>
#>  1     2     2 35.2       2  35.2 
#>  2     3     3  7.86      3   7.86
#>  3     4     4  4.50      4   4.51
#>  4     5     4  4.10      4   4.10
#>  5     6     5  3.06      5   3.06
#>  6     7     5  2.86      5   2.86
#>  7     8     6  2.38      6   2.38
#>  8     9     6  2.25      6   2.25
#>  9    10     6  2.14      6   2.14
#> 10    11     7  1.90      7   1.90
#> # … with 17 more rows
…
