Plotting Composite Material Data • cmstatr
…
To use this table in the plot we’re trying to construct, we want to “lengthen” the table as follows.

single_point_results %>%
  inner_join(b_basis_pooled_results, by = "condition") %>%
  inner_join(a_basis_pooled_results, by = "condition") %>%
  pivot_longer(cols = single_point_b_basis:a_basis_pooled)
#> # A tibble: 24 x 3
#>    condition name                 value
#>    <ord>     <chr>                <dbl>
#>  1 CTD       single_point_b_basis  121.
#>  2 CTD       single_point_a_basis  111.
#>  3 CTD       minimum               125.
#>  4 CTD       mean                  135.
#>  5 CTD       b_basis_pooled        125.
#>  6 CTD       a_basis_pooled        118.
#>  7 RTD       single_point_b_basis  128.
#>  8 RTD       single_point_a_basis  119.
#>  9 RTD       minimum               127.
#> 10 RTD       mean                  140.
#> # … with 14 more rows
…
