Extended Hanson-Koopmans • cmstatr
…
                                             j_cmh, z_cmh) {
  map_dfr(1:10000, function(i_sim) {
    x <- sort(rnorm(n, mu_normal, sd_normal))
    tibble(
      n = n,
      b_pre_080 = tolerance_limit(x, j_pre_080, z_pre_080),
      b_post_080 = tolerance_limit(x, j_post_080, z_post_080),
      b_cmh = tolerance_limit(x, j_cmh, z_cmh),
      x = list(x)
    )
  }
  )
})
sim_normal
#> # A tibble: 110,000 x 5
#>        n b_pre_080 b_post_080 b_cmh x         
#>    <dbl>     <dbl>      <dbl> <dbl> <list>    
#>  1    10      78.4       77.7  77.7 <dbl [10]>
#>  2    10      82.8       82.0  82.0 <dbl [10]>
#>  3    10      83.3       83.0  83.0 <dbl [10]>
#>  4    10      78.4       77.2  77.2 <dbl [10]>
#>  5    10      87.3       86.6  86.6 <dbl [10]>
#>  6    10      92.3       93.2  93.2 <dbl [10]>
#>  7    10      75.2       77.9  77.9 <dbl [10]>
#>  8    10      75.4       73.9  73.9 <dbl [10]>
#>  9    10      75.5       75.1  75.1 <dbl [10]>
#> 10    10      76.4       78.4  78.4 <dbl [10]>
#> # … with 109,990 more rows
…
                                              j_cmh, z_cmh) {
  map_dfr(1:10000, function(i_sim) {
    x <- sort(rweibull(n, shape_weibull, scale_weibull))
    tibble(
      n = n,
      b_pre_080 = tolerance_limit(x, j_pre_080, z_pre_080),
      b_post_080 = tolerance_limit(x, j_post_080, z_post_080),
      b_cmh = tolerance_limit(x, j_cmh, z_cmh),
      x = list(x)
    )
  }
  )
})
sim_weibull
#> # A tibble: 110,000 x 5
#>        n b_pre_080 b_post_080 b_cmh x         
#>    <dbl>     <dbl>      <dbl> <dbl> <list>    
#>  1    10      95.3       95.1  95.1 <dbl [10]>
#>  2    10      88.5       88.3  88.3 <dbl [10]>
#>  3    10      89.7       89.3  89.3 <dbl [10]>
#>  4    10      94.7       94.4  94.4 <dbl [10]>
#>  5    10      96.9       96.9  96.9 <dbl [10]>
#>  6    10      93.6       93.2  93.2 <dbl [10]>
#>  7    10      86.1       85.5  85.5 <dbl [10]>
#>  8    10      91.9       91.9  91.9 <dbl [10]>
#>  9    10      93.7       93.4  93.4 <dbl [10]>
#> 10    10      90.9       90.4  90.4 <dbl [10]>
#> # … with 109,990 more rows
…
